<?xml version="1.0" encoding="UTF-8" standalone="no"?>
<!-- Created with Inkscape (http://www.inkscape.org/) -->

<svg
   xmlns:dc="http://purl.org/dc/elements/1.1/"
   xmlns:cc="http://creativecommons.org/ns#"
   xmlns:rdf="http://www.w3.org/1999/02/22-rdf-syntax-ns#"
   xmlns:svg="http://www.w3.org/2000/svg"
   xmlns="http://www.w3.org/2000/svg"
   xmlns:sodipodi="http://sodipodi.sourceforge.net/DTD/sodipodi-0.dtd"
   xmlns:inkscape="http://www.inkscape.org/namespaces/inkscape"
   id="svg8018"
   version="1.1"
   inkscape:version="0.91 r13725"
   width="370.78125"
   height="340.5625"
   xml:space="preserve"
   sodipodi:docname="graph-traverse.svg"><metadata
     id="metadata8024"><rdf:RDF><cc:Work
         rdf:about=""><dc:format>image/svg+xml</dc:format><dc:type
           rdf:resource="http://purl.org/dc/dcmitype/StillImage" /><dc:title></dc:title></cc:Work></rdf:RDF></metadata><defs
     id="defs8022"><marker
       inkscape:stockid="Arrow1Lend"
       orient="auto"
       refY="0"
       refX="0"
       id="Arrow1Lend"
       style="overflow:visible"><path
         id="path4026"
         d="M 0,0 5,-5 -12.5,0 5,5 0,0 z"
         style="fill-rule:evenodd;stroke:#000000;stroke-width:1pt"
         transform="matrix(-0.8,0,0,-0.8,-10,0)"
         inkscape:connector-curvature="0" /></marker><clipPath
       clipPathUnits="userSpaceOnUse"
       id="clipPath8036"><path
         d="m 36,520 339,0 0,-485 -339,0 0,485 z"
         id="path8038"
         inkscape:connector-curvature="0" /></clipPath></defs><sodipodi:namedview
     pagecolor="#ffffff"
     bordercolor="#666666"
     borderopacity="1"
     objecttolerance="10"
     gridtolerance="10"
     guidetolerance="10"
     inkscape:pageopacity="0"
     inkscape:pageshadow="2"
     inkscape:window-width="1364"
     inkscape:window-height="730"
     id="namedview8020"
     showgrid="false"
     inkscape:zoom="0.96044433"
     inkscape:cx="246.69244"
     inkscape:cy="163.50499"
     inkscape:window-x="0"
     inkscape:window-y="18"
     inkscape:window-maximized="0"
     inkscape:current-layer="g3834"
     fit-margin-top="0"
     fit-margin-left="0"
     fit-margin-right="0"
     fit-margin-bottom="0"
     inkscape:showpageshadow="false" /><g
     inkscape:groupmode="layer"
     id="layer4"
     inkscape:label="page"
     transform="translate(10.46875,-253.5)"
     style="display:none"><rect
       style="color:#000000;fill:none;stroke:#000000;stroke-width:0;stroke-linecap:butt;stroke-linejoin:miter;stroke-miterlimit:4;stroke-opacity:1;stroke-dasharray:none;stroke-dashoffset:0;marker:none;visibility:visible;display:inline;overflow:visible;enable-background:accumulate"
       id="rect11239"
       width="370.66177"
       height="340.46741"
       x="-10.411847"
       y="253.55632" /></g><g
     id="g8026"
     inkscape:groupmode="layer"
     inkscape:label="SUS"
     transform="matrix(1.25,0,0,-1.25,-39.09125,389.89871)"
     style="display:inline"><g
       id="g8141"><g
         transform="matrix(1,0,0,0.95425626,0,7.1867327)"
         id="g4845"><path
           d="m 188,156.168 c 0,7.699 0,16.859 0,25.414"
           style="fill:none;stroke:#000000;stroke-width:1.02368772;stroke-linecap:butt;stroke-linejoin:miter;stroke-miterlimit:10;stroke-dasharray:none;stroke-opacity:1"
           id="path8126"
           inkscape:connector-curvature="0" /><path
           d="m 184.5,181.586 3.5,10 3.5,-10 -7,0 z"
           style="fill:#000000;fill-opacity:1;fill-rule:nonzero;stroke:#000000;stroke-width:1.02368772;stroke-linecap:butt;stroke-linejoin:miter;stroke-miterlimit:10;stroke-dasharray:none;stroke-opacity:1"
           id="path8128"
           inkscape:connector-curvature="0" /></g><g
         id="g5055-2"
         transform="matrix(-1,0,-0.20442934,1,381.93104,3.9731815)"><path
           style="fill:none;stroke:#000000;stroke-width:0.80000001;stroke-linecap:butt;stroke-linejoin:miter;stroke-miterlimit:4;stroke-dasharray:4.80000002, 4.80000002;stroke-dashoffset:0;stroke-opacity:1;marker-end:none"
           d="M 115.44076,205.5932 C 76.782241,140.86011 135.20265,81.906755 135.20265,81.906755"
           id="path4017-60"
           inkscape:connector-curvature="0" /><path
           d="m 133.93836,88.367221 3.99448,-10.18395 -9.28152,6.13909 5.28704,4.04486 z"
           style="fill:#000000;fill-opacity:1;fill-rule:nonzero;stroke:#000000;stroke-width:1;stroke-linecap:butt;stroke-linejoin:miter;stroke-miterlimit:10;stroke-dasharray:none;stroke-opacity:1"
           id="path8128-9-1"
           inkscape:connector-curvature="0" /></g><g
         id="g4845-3"
         transform="matrix(1,0,0,1.1940743,0,-110.44657)"><path
           d="m 188,156.168 c 0,7.699 0,16.859 0,25.414"
           style="fill:none;stroke:#000000;stroke-width:0.91513324;stroke-linecap:butt;stroke-linejoin:miter;stroke-miterlimit:10;stroke-dasharray:3.66053297, 3.66053297;stroke-dashoffset:0;stroke-opacity:1;marker-end:none"
           id="path8126-9"
           inkscape:connector-curvature="0" /><path
           d="m 184.5,181.586 3.5,10 3.5,-10 -7,0 z"
           style="fill:#000000;fill-opacity:1;fill-rule:nonzero;stroke:#000000;stroke-width:0.91513324;stroke-linecap:butt;stroke-linejoin:miter;stroke-miterlimit:10;stroke-dasharray:none;stroke-opacity:1"
           id="path8128-2"
           inkscape:connector-curvature="0" /></g><g
         transform="translate(-1.6,-1.6)"
         id="g3903"><path
           d="m 205.535,227.062 c 9.426,9.168 21.203,20.629 31.563,30.708"
           style="fill:none;stroke:#000000;stroke-width:1;stroke-linecap:butt;stroke-linejoin:miter;stroke-miterlimit:10;stroke-dasharray:none;stroke-opacity:1"
           id="path8122"
           inkscape:connector-curvature="0" /><path
           d="m 234.723,260.344 9.609,4.465 -4.727,-9.481 -4.882,5.016 z"
           style="fill:#000000;fill-opacity:1;fill-rule:nonzero;stroke:#000000;stroke-width:1;stroke-linecap:butt;stroke-linejoin:miter;stroke-miterlimit:10;stroke-dasharray:none;stroke-opacity:1"
           id="path8124"
           inkscape:connector-curvature="0" /></g><g
         id="g3839"><path
           d="m 187.852,282 c 0,-9.941 -33.063,-18 -73.852,-18 -40.789,0 -73.852,8.059 -73.852,18 0,9.941 33.063,18 73.852,18 40.789,0 73.852,-8.059 73.852,-18 z"
           style="fill:#cccccc;fill-opacity:1;fill-rule:nonzero;stroke:none"
           id="path8042"
           inkscape:connector-curvature="0" /><path
           d="m 187.852,282 c 0,-9.941 -33.063,-18 -73.852,-18 -40.789,0 -73.852,8.059 -73.852,18 0,9.941 33.063,18 73.852,18 40.789,0 73.852,-8.059 73.852,-18 z"
           style="fill:#377eb8;fill-opacity:1;stroke:#000000;stroke-width:1;stroke-linecap:butt;stroke-linejoin:miter;stroke-miterlimit:10;stroke-dasharray:none;stroke-opacity:1"
           id="path8044"
           inkscape:connector-curvature="0" /><text
           y="-277.89844"
           x="60.473675"
           transform="scale(1,-1)"
           id="text8046"
           style="fill:#ffffff;fill-opacity:1"><tspan
             style="font-variant:normal;font-weight:normal;font-size:14.00024414px;font-family:'DejaVu Sans';-inkscape-font-specification:DejaVuSans;writing-mode:lr-tb;fill:#ffffff;fill-opacity:1;fill-rule:nonzero;stroke:none"
             sodipodi:role="line"
             id="tspan8048"
             x="60.473675"
             y="-277.89844">LOCK_PRIMARY</tspan></text>
</g><g
         id="g3845"><path
           d="m 242.199,210 c 0,-9.941 -24.265,-18 -54.199,-18 -29.934,0 -54.199,8.059 -54.199,18 0,9.941 24.265,18 54.199,18 29.934,0 54.199,-8.059 54.199,-18 z"
           style="fill:#b3cde3;fill-opacity:1;fill-rule:nonzero;stroke:#000000;stroke-width:1;stroke-linecap:butt;stroke-linejoin:miter;stroke-miterlimit:10;stroke-dasharray:none;stroke-opacity:1"
           id="path8106"
           inkscape:connector-curvature="0" /><text
           y="-205.89844"
           x="156.84467"
           transform="scale(1,-1)"
           id="text8108"><tspan
             style="font-variant:normal;font-weight:normal;font-size:14.00024414px;font-family:'DejaVu Sans';-inkscape-font-specification:DejaVuSans;writing-mode:lr-tb;fill:#000000;fill-opacity:1;fill-rule:nonzero;stroke:none"
             sodipodi:role="line"
             id="tspan8110"
             x="156.84467"
             y="-205.89844">ACQUIRE</tspan></text>
</g><path
         inkscape:connector-curvature="0"
         id="path8112"
         style="fill:none;stroke:#000000;stroke-width:1;stroke-linecap:butt;stroke-linejoin:miter;stroke-miterlimit:10;stroke-dasharray:none;stroke-opacity:1"
         d="m 170.465,227.062 c -9.289,9.036 -20.86,20.297 -31.106,30.266" /><path
         inkscape:connector-curvature="0"
         id="path8114"
         style="fill:#000000;fill-opacity:1;fill-rule:nonzero;stroke:#000000;stroke-width:1;stroke-linecap:butt;stroke-linejoin:miter;stroke-miterlimit:10;stroke-dasharray:none;stroke-opacity:1"
         d="m 136.91,254.824 -4.726,9.485 9.609,-4.465 -4.883,-5.02 z" /><g
         id="g3834"><path
           d="m 317.789,282 c 0,-9.941 -24.98,-18 -55.789,-18 -30.809,0 -55.789,8.059 -55.789,18 0,9.941 24.98,18 55.789,18 30.809,0 55.789,-8.059 55.789,-18 z"
           style="fill:#377eb8;fill-opacity:1;fill-rule:nonzero;stroke:#000000;stroke-width:1;stroke-linecap:butt;stroke-linejoin:miter;stroke-miterlimit:10;stroke-dasharray:none;stroke-opacity:1"
           id="path8116"
           inkscape:connector-curvature="0" /><text
           y="-277.89844"
           x="227.14294"
           transform="scale(1,-1)"
           id="text8118"
           style="fill:#ffffff;fill-opacity:1"><tspan
             style="font-variant:normal;font-weight:normal;font-size:14.00024414px;font-family:'DejaVu Sans';-inkscape-font-specification:DejaVuSans;writing-mode:lr-tb;fill:#ffffff;fill-opacity:1;fill-rule:nonzero;stroke:none"
             sodipodi:role="line"
             id="tspan8120"
             x="227.14294"
             y="-277.89844">LOCK_ALT</tspan></text>
</g><g
         id="g5055"><path
           style="fill:none;stroke:#000000;stroke-width:1;stroke-linecap:butt;stroke-linejoin:miter;stroke-miterlimit:4;stroke-dasharray:6, 6;stroke-dashoffset:0;stroke-opacity:1;marker-end:none"
           d="M 53.744703,310.57565 C 28.712924,434.26209 122.95021,546.9051 122.95021,546.9051"
           id="path4017"
           inkscape:connector-curvature="0"
           transform="matrix(0.8,0,0,-0.8,39.648,514.71897)" /><path
           d="m 135.15723,87.189255 2.92184,-10.18395 -8.63491,6.13909 5.71307,4.04486 z"
           style="fill:#000000;fill-opacity:1;fill-rule:nonzero;stroke:#000000;stroke-width:1;stroke-linecap:butt;stroke-linejoin:miter;stroke-miterlimit:10;stroke-dasharray:none;stroke-opacity:1"
           id="path8128-9"
           inkscape:connector-curvature="0" /></g><g
         id="g5055-4"
         transform="matrix(-1,0,0,1,375.71483,-0.73868278)"><path
           style="fill:none;stroke:#000000;stroke-width:1;stroke-linecap:butt;stroke-linejoin:miter;stroke-miterlimit:4;stroke-dasharray:6, 6;stroke-dashoffset:0;stroke-opacity:1;marker-end:none"
           d="M 53.744703,310.57565 C 28.712924,434.26209 122.95021,546.9051 122.95021,546.9051"
           id="path4017-6"
           inkscape:connector-curvature="0"
           transform="matrix(0.8,0,0,-0.8,39.648,514.71897)" /><path
           d="m 135.15723,87.189255 2.92184,-10.18395 -8.63491,6.13909 5.71307,4.04486 z"
           style="fill:#000000;fill-opacity:1;fill-rule:nonzero;stroke:#000000;stroke-width:1;stroke-linecap:butt;stroke-linejoin:miter;stroke-miterlimit:10;stroke-dasharray:none;stroke-opacity:1"
           id="path8128-9-8"
           inkscape:connector-curvature="0" /></g><g
         id="g5055-2-8"
         transform="matrix(1,0,0.20442934,1,3.4335982,7.2125857)"><path
           style="fill:none;stroke:#000000;stroke-width:0.80000007;stroke-linecap:butt;stroke-linejoin:miter;stroke-miterlimit:4;stroke-dasharray:4.80000011, 4.80000011;stroke-dashoffset:0;stroke-opacity:1;marker-end:none"
           d="m 121.57939,115.46055 c -7.28355,-16.347479 3.63678,-32.274729 3.63678,-32.274729"
           id="path4017-60-6"
           inkscape:connector-curvature="0" /><g
           id="g5611"><path
             inkscape:connector-curvature="0"
             id="path8128-9-7"
             style="fill:#000000;fill-opacity:1;fill-rule:nonzero;stroke:#000000;stroke-width:1;stroke-linecap:butt;stroke-linejoin:miter;stroke-miterlimit:10;stroke-dasharray:none;stroke-opacity:1"
             d="m 127.41323,86.190434 3.04217,-10.557873 -8.84949,7.702317 5.80732,2.855556 z" /></g></g><g
         transform="translate(-0.20823696,-142.57386)"
         id="g5665"><path
           inkscape:connector-curvature="0"
           id="path5667"
           style="fill:#b3cde3;fill-opacity:1;fill-rule:nonzero;stroke:#000000;stroke-width:1;stroke-linecap:butt;stroke-linejoin:miter;stroke-miterlimit:10;stroke-dasharray:none;stroke-opacity:1"
           d="m 242.199,210 c 0,-9.941 -24.265,-18 -54.199,-18 -29.934,0 -54.199,8.059 -54.199,18 0,9.941 24.265,18 54.199,18 29.934,0 54.199,-8.059 54.199,-18 z" /><text
           id="text5669"
           transform="scale(1,-1)"
           x="158.9536"
           y="-204.89688"><tspan
             id="tspan5671"
             sodipodi:role="line"
             style="font-variant:normal;font-weight:normal;font-size:14.00024414px;font-family:'DejaVu Sans';-inkscape-font-specification:DejaVuSans;writing-mode:lr-tb;fill:#000000;fill-opacity:1;fill-rule:nonzero;stroke:none"
             x="158.9536"
             y="-204.89688">TRIPPED</tspan></text>
</g><g
         transform="translate(0,-72.759847)"
         style="display:inline"
         id="g3845-3"><path
           d="m 242.199,210 c 0,-9.941 -24.265,-18 -54.199,-18 -29.934,0 -54.199,8.059 -54.199,18 0,9.941 24.265,18 54.199,18 29.934,0 54.199,-8.059 54.199,-18 z"
           style="fill:#ccebc5;fill-opacity:1;fill-rule:nonzero;stroke:#000000;stroke-width:1;stroke-linecap:butt;stroke-linejoin:miter;stroke-miterlimit:10;stroke-dasharray:none;stroke-opacity:1"
           id="path8106-7"
           inkscape:connector-curvature="0" /><text
           y="-205.89844"
           x="164.94882"
           transform="scale(1,-1)"
           id="text8108-5"><tspan
             style="font-variant:normal;font-weight:normal;font-size:14.00024414px;font-family:'DejaVu Sans';-inkscape-font-specification:DejaVuSans;writing-mode:lr-tb;fill:#000000;fill-opacity:1;fill-rule:nonzero;stroke:none"
             sodipodi:role="line"
             id="tspan8110-6"
             x="164.94882"
             y="-205.89844">DOWN</tspan></text>
</g><g
         transform="matrix(0.60946455,0,0,0.61671455,56.940685,99.842176)"
         style="display:inline"
         id="g5055-3"><path
           style="fill:none;stroke:#000000;stroke-width:1.63111162;stroke-linecap:butt;stroke-linejoin:miter;stroke-miterlimit:4;stroke-dasharray:none;stroke-dashoffset:0;stroke-opacity:1;marker-end:none"
           d="M 53.744703,310.57565 C 28.712924,434.26209 122.95021,546.9051 122.95021,546.9051"
           id="path4017-9"
           inkscape:connector-curvature="0"
           transform="matrix(0.8,0,0,-0.8,39.648,514.71897)" /><path
           d="m 135.15723,87.189255 2.92184,-10.18395 -8.63491,6.13909 5.71307,4.04486 z"
           style="fill:#000000;fill-opacity:1;fill-rule:nonzero;stroke:#000000;stroke-width:1.63111162;stroke-linecap:butt;stroke-linejoin:miter;stroke-miterlimit:10;stroke-dasharray:none;stroke-opacity:1"
           id="path8128-9-6"
           inkscape:connector-curvature="0" /></g><g
         transform="matrix(-0.60946455,0,0,0.61671455,321.19961,99.011234)"
         style="display:inline"
         id="g5055-3-9"><path
           style="fill:none;stroke:#000000;stroke-width:1.63111162;stroke-linecap:butt;stroke-linejoin:miter;stroke-miterlimit:4;stroke-dasharray:none;stroke-dashoffset:0;stroke-opacity:1;marker-end:none"
           d="M 53.744703,310.57565 C 28.712924,434.26209 122.95021,546.9051 122.95021,546.9051"
           id="path4017-9-1"
           inkscape:connector-curvature="0"
           transform="matrix(0.8,0,0,-0.8,39.648,514.71897)" /><path
           d="m 135.15723,87.189255 2.92184,-10.18395 -8.63491,6.13909 5.71307,4.04486 z"
           style="fill:#000000;fill-opacity:1;fill-rule:nonzero;stroke:#000000;stroke-width:1.63111162;stroke-linecap:butt;stroke-linejoin:miter;stroke-miterlimit:10;stroke-dasharray:none;stroke-opacity:1"
           id="path8128-9-6-8"
           inkscape:connector-curvature="0" /></g><g
         transform="matrix(0.6756136,0,0.13080069,0.64937707,53.699907,103.1861)"
         style="display:inline"
         id="g5055-3-2"><path
           style="fill:none;stroke:#000000;stroke-width:1.20779252;stroke-linecap:butt;stroke-linejoin:miter;stroke-miterlimit:4;stroke-dasharray:none;stroke-dashoffset:0;stroke-opacity:1;marker-end:none"
           d="m 130.57368,141.22408 c -21.60797,-33.78967 7.4721,-63.721135 7.43449,-64.029194"
           id="path4017-9-5"
           inkscape:connector-curvature="0"
           sodipodi:nodetypes="cc" /><path
           d="m 135.15723,87.189255 2.92184,-10.18395 -8.63491,6.13909 5.71307,4.04486 z"
           style="fill:#000000;fill-opacity:1;fill-rule:nonzero;stroke:#000000;stroke-width:1.50974059;stroke-linecap:butt;stroke-linejoin:miter;stroke-miterlimit:10;stroke-dasharray:none;stroke-opacity:1"
           id="path8128-9-6-9"
           inkscape:connector-curvature="0" /></g></g></g><g
     inkscape:groupmode="layer"
     id="layer1"
     inkscape:label="request"
     style="display:none"
     transform="translate(10.46875,-253.5)"
     sodipodi:insensitive="true"><path
       transform="matrix(1.25,0,0,-1.25,-49.56,643.39871)"
       inkscape:connector-curvature="0"
       id="path5445"
       style="fill:none;stroke:#f10000;stroke-width:4;stroke-linecap:butt;stroke-linejoin:miter;stroke-miterlimit:10;stroke-dasharray:none;stroke-dashoffset:0;stroke-opacity:1"
       d="m 187.852,282 c 0,-9.941 -33.063,-18 -73.852,-18 -40.789002,0 -73.851998,8.059 -73.851998,18 0,9.941 33.062996,18 73.851998,18 40.789,0 73.852,-8.059 73.852,-18 z" /><g
       transform="matrix(1.25,0,0,-1.25,-49.56,643.39871)"
       id="g5501"
       style="fill:#00cc11;fill-opacity:1"><path
         d="m 188,156.168 c 0,7.699 0,16.859 0,25.414"
         style="fill:#00cc11;fill-opacity:1;stroke:#1cc300;stroke-width:4;stroke-linecap:butt;stroke-linejoin:miter;stroke-miterlimit:10;stroke-dasharray:none;stroke-opacity:1"
         id="path5503"
         inkscape:connector-curvature="0" /><path
         d="m 184.5,179.986 3.5,10 3.5,-10 -7,0 z"
         style="fill:#00cc11;fill-opacity:1;fill-rule:nonzero;stroke:#00cc11;stroke-width:1;stroke-linecap:butt;stroke-linejoin:miter;stroke-miterlimit:10;stroke-dasharray:none;stroke-opacity:1"
         id="path5505"
         inkscape:connector-curvature="0" /></g><path
       inkscape:connector-curvature="0"
       id="path5510"
       style="fill:#00cc11;fill-opacity:1;stroke:#00cc11;stroke-width:5;stroke-linecap:butt;stroke-linejoin:miter;stroke-miterlimit:10;stroke-dasharray:none;stroke-opacity:1"
       d="M 162.83916,359.2031 C 150.55218,347.24869 138.19161,334.92746 124.63875,321.73871"
       sodipodi:nodetypes="cc" /><path
       transform="matrix(1.25,0,0,-1.25,-49.56,643.39871)"
       inkscape:connector-curvature="0"
       id="path5512"
       style="fill:#00cc11;fill-opacity:1;fill-rule:nonzero;stroke:#00cc11;stroke-width:1;stroke-linecap:butt;stroke-linejoin:miter;stroke-miterlimit:10;stroke-dasharray:none;stroke-opacity:1"
       d="m 136.91,254.824 -4.726,9.485 9.609,-4.465 -4.883,-5.02 z" /><path
       inkscape:connector-curvature="0"
       id="path5518"
       style="fill:none;stroke:#00cc11;stroke-width:5;stroke-linecap:butt;stroke-linejoin:miter;stroke-miterlimit:10;stroke-dasharray:none;stroke-opacity:1"
       d="m 253.18875,380.89871 c 0,12.42625 -30.33125,22.5 -67.74875,22.5 -37.4175,0 -67.74875,-10.07375 -67.74875,-22.5 0,-12.42625 30.33125,-22.5 67.74875,-22.5 37.4175,0 67.74875,10.07375 67.74875,22.5 z" /><path
       inkscape:connector-curvature="0"
       id="path5518-1"
       style="display:inline;fill:none;stroke:#0e3aff;stroke-width:5;stroke-linecap:butt;stroke-linejoin:miter;stroke-miterlimit:10;stroke-dasharray:none;stroke-opacity:1"
       d="m 253.02273,470.16151 c 0,12.42625 -30.33125,22.5 -67.74875,22.5 -37.4175,0 -67.74875,-10.07375 -67.74875,-22.5 0,-12.42625 30.33125,-22.5 67.74875,-22.5 37.4175,0 67.74875,10.07375 67.74875,22.5 z" /></g><g
     inkscape:groupmode="layer"
     id="layer3"
     inkscape:label="jump"
     style="display:none"
     transform="translate(10.46875,-253.5)"
     sodipodi:insensitive="true"><g
       style="display:inline"
       id="g5615"
       transform="matrix(-1.25,0,-0.25553668,-1.25,427.8538,638.43223)"><path
         style="fill:none;stroke:#fb9200;stroke-width:4;stroke-linecap:butt;stroke-linejoin:miter;stroke-miterlimit:4;stroke-dasharray:12, 4.00000001;stroke-dashoffset:0;stroke-opacity:1;marker-end:none"
         d="M 109.50671,196.0143 C 83.702093,131.28121 135.20265,81.906755 135.20265,81.906755"
         id="path5617"
         inkscape:connector-curvature="0"
         sodipodi:nodetypes="cc" /><path
         d="m 133.93836,88.367221 3.99448,-10.18395 -9.28152,6.13909 5.28704,4.04486 z"
         style="fill:#fb9200;fill-opacity:1;fill-rule:nonzero;stroke:#fb9200;stroke-width:1;stroke-linecap:butt;stroke-linejoin:miter;stroke-miterlimit:10;stroke-dasharray:none;stroke-opacity:1"
         id="path5619"
         inkscape:connector-curvature="0" /></g><path
       d="m 253.18875,380.89871 c 0,12.42625 -30.33125,22.5 -67.74875,22.5 -37.4175,0 -67.74875,-10.07375 -67.74875,-22.5 0,-12.42625 30.33125,-22.5 67.74875,-22.5 37.4175,0 67.74875,10.07375 67.74875,22.5 z"
       style="display:inline;fill:none;stroke:#0e23ff;stroke-width:5;stroke-linecap:butt;stroke-linejoin:miter;stroke-miterlimit:10;stroke-dasharray:none;stroke-opacity:1"
       id="path5627"
       inkscape:connector-curvature="0" /><g
       style="display:none"
       id="g5649"
       transform="matrix(1.25,0,0,-1.25,-49.56,820.44853)"><path
         d="m 242.199,210 c 0,-9.941 -24.265,-18 -54.199,-18 -29.934,0 -54.199,8.059 -54.199,18 0,9.941 24.265,18 54.199,18 29.934,0 54.199,-8.059 54.199,-18 z"
         style="fill:#ffe07a;fill-opacity:1;fill-rule:nonzero;stroke:#000000;stroke-width:1;stroke-linecap:butt;stroke-linejoin:miter;stroke-miterlimit:10;stroke-dasharray:none;stroke-opacity:1"
         id="path5651"
         inkscape:connector-curvature="0" /><text
         y="-204.89688"
         x="158.9536"
         transform="scale(1,-1)"
         id="text5653"><tspan
           y="-204.89688"
           x="158.9536"
           style="font-variant:normal;font-weight:normal;font-size:14.00024414px;font-family:'DejaVu Sans';-inkscape-font-specification:DejaVuSans;writing-mode:lr-tb;fill:#000000;fill-opacity:1;fill-rule:nonzero;stroke:none"
           sodipodi:role="line"
           id="tspan5655">TRIPPED</tspan></text>
</g><path
       d="m 252.47103,559.05288 c 0,12.42625 -30.33125,22.5 -67.74875,22.5 -37.4175,0 -67.74875,-10.07375 -67.74875,-22.5 0,-12.42625 30.33125,-22.5 67.74875,-22.5 37.4175,0 67.74875,10.07375 67.74875,22.5 z"
       style="fill:none;stroke:#fb9200;stroke-width:5;stroke-linecap:butt;stroke-linejoin:miter;stroke-miterlimit:10;stroke-dasharray:none;stroke-opacity:1"
       id="path8106-8"
       inkscape:connector-curvature="0" /><path
       d="m 187.852,282 c 0,-9.941 -33.063,-18 -73.852,-18 -40.789002,0 -73.851998,8.059 -73.851998,18 0,9.941 33.062996,18 73.851998,18 40.789,0 73.852,-8.059 73.852,-18 z"
       style="display:inline;fill:none;stroke:#f10000;stroke-width:4;stroke-linecap:butt;stroke-linejoin:miter;stroke-miterlimit:10;stroke-dasharray:none;stroke-dashoffset:0;stroke-opacity:1"
       id="path12261"
       inkscape:connector-curvature="0"
       transform="matrix(1.25,0,0,-1.25,-49.56,643.39871)" /></g><g
     inkscape:groupmode="layer"
     id="layer2"
     inkscape:label="MC2"
     style="display:none"
     transform="translate(-39.09125,-305.10128)"
     sodipodi:insensitive="true"><g
       transform="matrix(1.25,0,0,-1.25,1022.7524,428.59391)"
       id="g4290"><path
         inkscape:connector-curvature="0"
         d="m -546.54201,194.29262 c 0.76503,-7.70475 0.99365,-16.92173 0.67595,-25.51522"
         style="fill:none;stroke:#000000;stroke-width:0.99999994;stroke-linecap:butt;stroke-linejoin:miter;stroke-miterlimit:10;stroke-dasharray:none;stroke-opacity:1"
         id="path6154" /><path
         inkscape:connector-curvature="0"
         d="m -542.41698,168.39835 -4.09831,-9.65344 -2.81468,10.10177 6.91299,-0.44833 z"
         style="fill:#000000;fill-opacity:1;fill-rule:nonzero;stroke:#000000;stroke-width:0.99999994;stroke-linecap:butt;stroke-linejoin:miter;stroke-miterlimit:10;stroke-dasharray:none;stroke-opacity:1"
         id="path6156" /></g><g
       transform="matrix(1.25,0,0,-1.25,1026.7524,428.59391)"
       id="g17123"><path
         inkscape:connector-curvature="0"
         d="m -555.60692,87.487174 c 0,7.619629 0,16.685196 0,25.151996"
         style="fill:none;stroke:#000000;stroke-width:0.99999994;stroke-linecap:butt;stroke-linejoin:miter;stroke-miterlimit:10;stroke-dasharray:none;stroke-opacity:1"
         id="path6222" /><path
         inkscape:connector-curvature="0"
         d="m -559.07084,112.64313 3.46392,9.89691 3.46392,-9.89691 -6.92784,0 z"
         style="fill:#000000;fill-opacity:1;fill-rule:nonzero;stroke:#000000;stroke-width:0.99999994;stroke-linecap:butt;stroke-linejoin:miter;stroke-miterlimit:10;stroke-dasharray:none;stroke-opacity:1"
         id="path6224" /></g><g
       transform="matrix(1.25,0,0,-1.25,1022.7524,428.59391)"
       id="g4216"
       style="fill:#008ef1;fill-opacity:1"><path
         inkscape:connector-curvature="0"
         d="m -497.19307,212.02194 c 0,-9.83852 -24.72247,-17.81444 -55.21385,-17.81444 -30.49138,0 -55.21386,7.97592 -55.21386,17.81444 0,9.83851 24.72248,17.81443 55.21386,17.81443 30.49138,0 55.21385,-7.97592 55.21385,-17.81443 z"
         style="fill:#008ef1;fill-opacity:1;fill-rule:nonzero;stroke:#000000;stroke-width:0.99999994;stroke-linecap:butt;stroke-linejoin:miter;stroke-miterlimit:10;stroke-dasharray:none;stroke-opacity:1"
         id="path6142" /><text
         transform="scale(1,-1)"
         id="text6144"
         x="-580.85278"
         y="-206.9782"
         style="font-size:11.87628841px;fill:#000000;fill-opacity:1"><tspan
           style="font-variant:normal;font-weight:normal;font-size:13.85591125px;font-family:'DejaVu Sans';-inkscape-font-specification:DejaVuSans;writing-mode:lr-tb;fill:#000000;fill-opacity:1;fill-rule:nonzero;stroke:none"
           sodipodi:role="line"
           id="tspan6146"
           x="-580.85278"
           y="-206.9782">LOCKED</tspan></text>
</g><g
       transform="matrix(1.25,0,0,-1.25,1022.7524,428.59391)"
       id="g4286"><path
         inkscape:connector-curvature="0"
         d="m -558.29855,158.74491 c -0.75414,7.73938 -0.96693,16.96428 -0.64231,25.54292"
         style="fill:none;stroke:#000000;stroke-width:0.99999994;stroke-linecap:butt;stroke-linejoin:miter;stroke-miterlimit:10;stroke-dasharray:none;stroke-opacity:1"
         id="path6170" /><path
         inkscape:connector-curvature="0"
         d="m -562.38894,184.64709 4.11711,9.64553 2.79885,-10.10573 -6.91596,0.4602 z"
         style="fill:#000000;fill-opacity:1;fill-rule:nonzero;stroke:#000000;stroke-width:0.99999994;stroke-linecap:butt;stroke-linejoin:miter;stroke-miterlimit:10;stroke-dasharray:none;stroke-opacity:1"
         id="path6172" /></g><g
       id="g3829"><path
         inkscape:connector-curvature="0"
         d="m 402.73448,252.63866 c 0,12.29814 -31.56,22.26804 -70.49073,22.26804 -38.93072,0 -70.49072,-9.9699 -70.49072,-22.26804 0,-12.29815 31.56,-22.26805 70.49072,-22.26805 38.93073,0 70.49073,9.9699 70.49073,22.26805 z"
         style="fill:#008ef1;fill-opacity:1;fill-rule:nonzero;stroke:#000000;stroke-width:1.24999988;stroke-linecap:butt;stroke-linejoin:miter;stroke-miterlimit:10;stroke-dasharray:none;stroke-opacity:1"
         id="path6148" /><text
         id="text6150"
         x="293.70108"
         y="257.94965"
         style="font-size:14.84536076px;fill:#000000;fill-opacity:1"><tspan
           style="font-variant:normal;font-weight:normal;font-size:17.31988907px;font-family:'DejaVu Sans';-inkscape-font-specification:DejaVuSans;writing-mode:lr-tb;fill:#000000;fill-opacity:1;fill-rule:nonzero;stroke:none"
           sodipodi:role="line"
           id="tspan6152"
           x="293.70108"
           y="257.94965">ACQUIRE</tspan></text>
</g><g
       style="display:inline"
       transform="matrix(1.25,0,0,-1.25,1260.664,514.19872)"
       id="g4282-3"><path
         inkscape:connector-curvature="0"
         d="m -608.63737,272.94723 c -10.31752,-19.79844 -22.34919,-51.36518 -11.36561,-76.4548 5.95002,-13.5833 16.54268,-25.06097 27.4372,-34.09459"
         style="fill:none;stroke:#000000;stroke-width:0.99999994;stroke-linecap:butt;stroke-linejoin:miter;stroke-miterlimit:10;stroke-dasharray:none;stroke-opacity:1"
         id="path6194-0" /><path
         inkscape:connector-curvature="0"
         d="m -594.3017,159.38227 10.05526,-2.976 -6.00742,8.59744 -4.04784,-5.62144 z"
         style="fill:#000000;fill-opacity:1;fill-rule:nonzero;stroke:#000000;stroke-width:0.99999994;stroke-linecap:butt;stroke-linejoin:miter;stroke-miterlimit:10;stroke-dasharray:none;stroke-opacity:1"
         id="path6196-8" /></g></g></svg>